Nodes/Edges;A;B;C;D;E;F;G;H;I;J;K;L;M;N
0;3;-;-;-;-;-;-;-;-;-;-;-;-;-
3;-;4;-;-;-;-;-;-;-;-;-;-;-;-
4;-;-;5;-;-;-;-;-;-;-;-;-;-;-
5;-;-;-;8;-;-;-;-;-;-;-;-;-;-
8;-;-;-;-;9;-;-;-;-;-;-;-;-;-
9;-;-;-;-;-;10;-;-;-;-;-;-;-;-
10;-;-;-;-;-;-;13;-;-;-;-;-;-;-
13;-;-;-;-;-;-;-;16;-;-;-;-;-;-
16;-;-;-;-;-;-;-;-;17;-;-;-;-;-
17;-;-;-;-;-;-;-;-;-;20;-;-;-;-
20;-;-;-;-;-;-;-;-;-;-;21;-;-;-
21;-;-;-;-;-;-;-;-;-;-;-;26;-;-
26;-;-;-;-;-;-;-;-;-;-;-;-;29;-
start;-;-;-;-;-;-;-;-;-;-;-;-;-;0
